^E:\USERS\8570P\DESKTOP\STUDIA\PROJEKTOWANIE_WARSTWY_WIZUALNEJ_GRY\ZADANIA\ZESTAW 1\ZADANIE 2\ZADANIE 1\STDAFX.CPP
/c /ZI /nologo /W3 /WX- /Od /Oy- /D WIN32 /D _DEBUG /D _CONSOLE /D _LIB /D _UNICODE /D UNICODE /Gm /EHsc /RTC1 /MDd /GS /fp:precise /Zc:wchar_t /Zc:forScope /Yc"stdafx.h" /Fp"DEBUG\ZADANIE 2.PCH" /Fo"DEBUG\\" /Fd"DEBUG\VC120.PDB" /Gd /TP /analyze- E:\USERS\8570P\DESKTOP\STUDIA\PROJEKTOWANIE_WARSTWY_WIZUALNEJ_GRY\ZADANIA\ZESTAW 1\ZADANIE 2\ZADANIE 1\STDAFX.CPP
^E:\USERS\8570P\DESKTOP\STUDIA\PROJEKTOWANIE_WARSTWY_WIZUALNEJ_GRY\ZADANIA\ZESTAW 1\ZADANIE 2\ZADANIE 1\GL3W.C
/c /ZI /nologo /W3 /WX- /Od /Oy- /D WIN32 /D _DEBUG /D _CONSOLE /D _LIB /D _UNICODE /D UNICODE /Gm /EHsc /RTC1 /MDd /GS /fp:precise /Zc:wchar_t /Zc:forScope /Fo"DEBUG\\" /Fd"DEBUG\VC120.PDB" /Gd /TC /analyze- E:\USERS\8570P\DESKTOP\STUDIA\PROJEKTOWANIE_WARSTWY_WIZUALNEJ_GRY\ZADANIA\ZESTAW 1\ZADANIE 2\ZADANIE 1\GL3W.C
^E:\USERS\8570P\DESKTOP\STUDIA\PROJEKTOWANIE_WARSTWY_WIZUALNEJ_GRY\ZADANIA\ZESTAW 1\ZADANIE 2\ZADANIE 1\MAIN.CPP
/c /ZI /nologo /W3 /WX- /Od /Oy- /D WIN32 /D _DEBUG /D _CONSOLE /D _LIB /D _UNICODE /D UNICODE /Gm /EHsc /RTC1 /MDd /GS /fp:precise /Zc:wchar_t /Zc:forScope /Fo"DEBUG\\" /Fd"DEBUG\VC120.PDB" /Gd /TP /analyze- E:\USERS\8570P\DESKTOP\STUDIA\PROJEKTOWANIE_WARSTWY_WIZUALNEJ_GRY\ZADANIA\ZESTAW 1\ZADANIE 2\ZADANIE 1\MAIN.CPP
^E:\USERS\8570P\DESKTOP\STUDIA\PROJEKTOWANIE_WARSTWY_WIZUALNEJ_GRY\ZADANIA\ZESTAW 1\ZADANIE 2\ZADANIE 1\MESH.CPP
/c /ZI /nologo /W3 /WX- /Od /Oy- /D WIN32 /D _DEBUG /D _CONSOLE /D _LIB /D _UNICODE /D UNICODE /Gm /EHsc /RTC1 /MDd /GS /fp:precise /Zc:wchar_t /Zc:forScope /Yu"stdafx.h" /Fp"DEBUG\ZADANIE 2.PCH" /Fo"DEBUG\\" /Fd"DEBUG\VC120.PDB" /Gd /TP /analyze- E:\USERS\8570P\DESKTOP\STUDIA\PROJEKTOWANIE_WARSTWY_WIZUALNEJ_GRY\ZADANIA\ZESTAW 1\ZADANIE 2\ZADANIE 1\MESH.CPP
^E:\USERS\8570P\DESKTOP\STUDIA\PROJEKTOWANIE_WARSTWY_WIZUALNEJ_GRY\ZADANIA\ZESTAW 1\ZADANIE 2\ZADANIE 1\SHADER.CPP
/c /ZI /nologo /W3 /WX- /Od /Oy- /D WIN32 /D _DEBUG /D _CONSOLE /D _LIB /D _UNICODE /D UNICODE /Gm /EHsc /RTC1 /MDd /GS /fp:precise /Zc:wchar_t /Zc:forScope /Yu"stdafx.h" /Fp"DEBUG\ZADANIE 2.PCH" /Fo"DEBUG\\" /Fd"DEBUG\VC120.PDB" /Gd /TP /analyze- E:\USERS\8570P\DESKTOP\STUDIA\PROJEKTOWANIE_WARSTWY_WIZUALNEJ_GRY\ZADANIA\ZESTAW 1\ZADANIE 2\ZADANIE 1\SHADER.CPP
