^E:\USERS\8570P\DESKTOP\STUDIA\PROJEKTOWANIE_WARSTWY_WIZUALNEJ_GRY\ZADANIA\ZESTAW 1\ZADANIE 4\ZADANIE 4\DEBUG\GL3W.OBJ|E:\USERS\8570P\DESKTOP\STUDIA\PROJEKTOWANIE_WARSTWY_WIZUALNEJ_GRY\ZADANIA\ZESTAW 1\ZADANIE 4\ZADANIE 4\DEBUG\MAIN.OBJ|E:\USERS\8570P\DESKTOP\STUDIA\PROJEKTOWANIE_WARSTWY_WIZUALNEJ_GRY\ZADANIA\ZESTAW 1\ZADANIE 4\ZADANIE 4\DEBUG\MESH.OBJ|E:\USERS\8570P\DESKTOP\STUDIA\PROJEKTOWANIE_WARSTWY_WIZUALNEJ_GRY\ZADANIA\ZESTAW 1\ZADANIE 4\ZADANIE 4\DEBUG\SHADER.OBJ|E:\USERS\8570P\DESKTOP\STUDIA\PROJEKTOWANIE_WARSTWY_WIZUALNEJ_GRY\ZADANIA\ZESTAW 1\ZADANIE 4\ZADANIE 4\DEBUG\STDAFX.OBJ
/OUT:"E:\USERS\8570P\DESKTOP\STUDIA\PROJEKTOWANIE_WARSTWY_WIZUALNEJ_GRY\ZADANIA\ZESTAW 1\ZADANIE 4\DEBUG\ZADANIE 4.EXE" /INCREMENTAL /NOLOGO opengl32.lib glfw3.lib kernel32.lib user32.lib gdi32.lib winspool.lib comdlg32.lib advapi32.lib shell32.lib ole32.lib oleaut32.lib uuid.lib odbc32.lib odbccp32.lib /MANIFEST /MANIFESTUAC:"level='asInvoker' uiAccess='false'" /manifest:embed /DEBUG /PDB:"E:\USERS\8570P\DESKTOP\STUDIA\PROJEKTOWANIE_WARSTWY_WIZUALNEJ_GRY\ZADANIA\ZESTAW 1\ZADANIE 4\DEBUG\ZADANIE 4.PDB" /SUBSYSTEM:CONSOLE /TLBID:1 /DYNAMICBASE /NXCOMPAT /IMPLIB:"E:\USERS\8570P\DESKTOP\STUDIA\PROJEKTOWANIE_WARSTWY_WIZUALNEJ_GRY\ZADANIA\ZESTAW 1\ZADANIE 4\DEBUG\ZADANIE 4.LIB" /MACHINE:X86 DEBUG\GL3W.OBJDEBUG\MAIN.OBJDEBUG\MESH.OBJDEBUG\SHADER.OBJDEBUG\STDAFX.OBJ
^D:\ONEDRIVE\STUDIA\PROJEKTOWANIE WARSTWY WIZUALNEJ GRY\ZADANIA\ZESTAW 1\PWWG-2016-DANIEL-JANOWSKI\ZADANIE 4\ZADANIE 4\DEBUG\GL3W.OBJ|D:\ONEDRIVE\STUDIA\PROJEKTOWANIE WARSTWY WIZUALNEJ GRY\ZADANIA\ZESTAW 1\PWWG-2016-DANIEL-JANOWSKI\ZADANIE 4\ZADANIE 4\DEBUG\MAIN.OBJ|D:\ONEDRIVE\STUDIA\PROJEKTOWANIE WARSTWY WIZUALNEJ GRY\ZADANIA\ZESTAW 1\PWWG-2016-DANIEL-JANOWSKI\ZADANIE 4\ZADANIE 4\DEBUG\MESH.OBJ|D:\ONEDRIVE\STUDIA\PROJEKTOWANIE WARSTWY WIZUALNEJ GRY\ZADANIA\ZESTAW 1\PWWG-2016-DANIEL-JANOWSKI\ZADANIE 4\ZADANIE 4\DEBUG\SHADER.OBJ|D:\ONEDRIVE\STUDIA\PROJEKTOWANIE WARSTWY WIZUALNEJ GRY\ZADANIA\ZESTAW 1\PWWG-2016-DANIEL-JANOWSKI\ZADANIE 4\ZADANIE 4\DEBUG\STDAFX.OBJ
/OUT:"D:\ONEDRIVE\STUDIA\PROJEKTOWANIE WARSTWY WIZUALNEJ GRY\ZADANIA\ZESTAW 1\PWWG-2016-DANIEL-JANOWSKI\ZADANIE 4\DEBUG\ZADANIE 4.EXE" /INCREMENTAL /NOLOGO opengl32.lib glfw3.lib kernel32.lib user32.lib gdi32.lib winspool.lib comdlg32.lib advapi32.lib shell32.lib ole32.lib oleaut32.lib uuid.lib odbc32.lib odbccp32.lib /MANIFEST /MANIFESTUAC:"level='asInvoker' uiAccess='false'" /manifest:embed /DEBUG /PDB:"D:\ONEDRIVE\STUDIA\PROJEKTOWANIE WARSTWY WIZUALNEJ GRY\ZADANIA\ZESTAW 1\PWWG-2016-DANIEL-JANOWSKI\ZADANIE 4\DEBUG\ZADANIE 4.PDB" /SUBSYSTEM:CONSOLE /TLBID:1 /DYNAMICBASE /NXCOMPAT /IMPLIB:"D:\ONEDRIVE\STUDIA\PROJEKTOWANIE WARSTWY WIZUALNEJ GRY\ZADANIA\ZESTAW 1\PWWG-2016-DANIEL-JANOWSKI\ZADANIE 4\DEBUG\ZADANIE 4.LIB" /MACHINE:X86 DEBUG\GL3W.OBJDEBUG\MAIN.OBJDEBUG\MESH.OBJDEBUG\SHADER.OBJDEBUG\STDAFX.OBJ
